{
    "name": "Node.js 12",
    "dockerFile": "Dockerfile",

    "settings": {
        "workbench.colorTheme": "Night Owl",
        "terminal.integrated.shell.linux": "/bin/bash"
    },
    "extensions": ["sdras.night-owl"],
    "forwardPorts": [3000],
    "postCreateCommand": "npm install"
}
